{
"Avg. Area Income": 79545.45857,
"Avg. Area House Age": 5.682861322,
"Avg. AreaNumberofRooms": 7.009188143,
"Avg. Area Number of Bedrooms": 4.09,
"Area Population": 23086.8005,
"Price": 1059033.558
}